milestone1/simulation/qsim/milestone1.msim.vcd
$comment
	File created using the following command:
		vcd file milestone1.msim.vcd -direction
$end
$date
	Wed Oct 02 18:47:41 2024
$end
$version
	ModelSim Version 10.1d
$end
$timescale
	1ps
$end
$scope module milestone1_vlg_vec_tst $end
$var reg 1 ! i_clk $end
$var reg 1 " i_dime $end
$var reg 1 # i_nickel $end
$var reg 1 $ i_quarter $end
$var wire 1 % o_change [2] $end
$var wire 1 & o_change [1] $end
$var wire 1 ' o_change [0] $end
$var wire 1 ( o_soda $end
$var wire 1 ) sampler $end
$scope module i1 $end
$var wire 1 * gnd $end
$var wire 1 + vcc $end
$var wire 1 , unknown $end
$var tri1 1 - devclrn $end
$var tri1 1 . devpor $end
$var tri1 1 / devoe $end
$var wire 1 0 ~QUARTUS_CREATED_GND~I_combout $end
$var wire 1 1 i_clk~input_o $end
$var wire 1 2 i_clk~inputCLKENA0_outclk $end
$var wire 1 3 i_dime~input_o $end
$var wire 1 4 i_nickel~input_o $end
$var wire 1 5 i_quarter~input_o $end
$var wire 1 6 Selector3~0_combout $end
$var wire 1 7 c_state.s3~q $end
$var wire 1 8 Selector0~0_combout $end
$var wire 1 9 Selector0~1_combout $end
$var wire 1 : c_state.s0~q $end
$var wire 1 ; Selector1~0_combout $end
$var wire 1 < c_state.s1~q $end
$var wire 1 = Selector2~0_combout $end
$var wire 1 > c_state.s2~q $end
$var wire 1 ? Selector6~0_combout $end
$var wire 1 @ Selector6~1_combout $end
$var wire 1 A o_soda~reg0_q $end
$var wire 1 B Selector5~0_combout $end
$var wire 1 C o_change[0]~reg0_q $end
$var wire 1 D Selector4~0_combout $end
$var wire 1 E o_change[1]~reg0_q $end
$var wire 1 F c_o_change[2]~0_combout $end
$var wire 1 G o_change[2]~reg0_q $end
$upscope $end
$upscope $end
$enddefinitions $end
#0
$dumpvars
0!
0"
0#
0$
0'
0&
0%
0(
x)
0*
1+
x,
1-
1.
1/
00
01
02
03
04
05
06
07
08
09
0:
0;
0<
0=
0>
0?
0@
0A
0B
0C
0D
0E
0F
0G
$end
#30000
1!
11
12
0)
#60000
0!
01
02
1)
#90000
1!
11
12
0)
#100000
1"
13
1)
19
1=
#120000
0!
01
02
0)
#150000
1!
11
12
1)
1>
1:
09
0=
1@
18
1?
#160000
1$
0"
15
03
0)
1B
1D
#180000
0!
01
02
1)
#210000
1!
11
12
0)
0>
0:
1E
1C
1A
19
0@
08
0?
0D
1&
1'
1(
09
1@
#220000
0$
05
1)
0@
0B
#240000
0!
01
02
0)
#270000
1!
11
12
1)
0E
0C
0A
0&
0'
0(
#280000
1#
14
0)
19
1;
#300000
0!
01
02
1)
#330000
1!
11
12
0)
1<
1:
18
0;
1=
#340000
1"
0#
13
04
1)
16
0=
#360000
0!
01
02
0)
#390000
1!
11
12
1)
0<
17
06
1?
09
1@
1B
#400000
1$
0"
15
03
0)
0B
1F
#420000
0!
01
02
1)
#450000
1!
11
12
0)
0:
07
1G
1A
08
0?
1B
19
0@
0F
1%
1(
09
1@
#460000
0$
05
1)
0@
0B
#480000
0!
01
02
0)
#510000
1!
11
12
1)
0G
0A
0%
0(
#540000
0!
01
02
0)
#570000
1!
11
12
1)
#600000
0!
01
02
0)
#630000
1!
11
12
1)
#660000
0!
01
02
0)
#690000
1!
11
12
1)
#720000
0!
01
02
0)
#750000
1!
11
12
1)
#780000
0!
01
02
0)
#810000
1!
11
12
1)
#840000
0!
01
02
0)
#870000
1!
11
12
1)
#900000
0!
01
02
0)
#930000
1!
11
12
1)
#960000
0!
01
02
0)
#990000
1!
11
12
1)
